  _    _                          _                _        _
 | \  / |                        | |   _          | |     _| |_
 |  \/  |   ___     ___    _  _  | |  |_|   ___   | |___ |_   _|
 | |\/| |  / _ \   /   \  | \| | | |  | |  / _ \  |  _  |  | |
 | |  | | | (_) | |     | |    | | |  | | | (_) | | | | |  | |_
 |_|  |_|  \___/   \___/  |_|\_| |__| |_|  \__  | |_| |_|  \___|
                                             _| |
:: Built with Spring Boot :: ${spring-boot.version}  |__/

